7.
	{
	turn right
	for(i=0;i<=5;i++)
	{
	moveforward
	}
	}

8.	{
	moveforward();
	{
	for(i=0;i<4;i++)	
	}	
	turn right();
	{
	for(i=0;i<5;i++)
	moveforward()
	}
	}

9.
	{
	repeat for(i=0;i<3;i++)	
	moveforward();
	moveforward();
	turn right();
	}

10.	
	{
	while(not fineshed)
	moveforward();
	}

11.	
	{
	while(not fineshed)
	moveforward();
	moveforward();
	turn left();
	}

12.	{
	while(untile)
	move forward();
	turn left();
	moveforward();
	turn right();
	}

13.	
	{
	{
	turn right();
	move forward();
	turn left();
	move forward();
	Reach the point
	}
	if else
	{
	turn left();
	move forward()
	}
	}
	u will end

14.	
	{
	repeat(until)	
	do
	moveforward();
	if path to the left();
	do();
	turn left();
	}
	u reach the point
	if else
	{
	moveforward();
 	turn right();
	}
	u will end

	or
		
	while(not fineshed);
	{
	moveforward();
	if (left turn);
	{	
	turn left();
	}
	}

15.	
	while(not finished)
	{
	moveforward();
	if(path right);
	{
	turn right();
	}
	}

16.	
	while (not finished) 
	{
 	 moveForward();
  	if (isPathLeft)
	{
  	turnLeft();
 	}
	}

17.	
	while (not 	finished)
	 {
  	moveForward();
  	if (isPathRight) 
	{
   	turnRight();
  	}
	}

18.	while (not finished) 
	{
  	moveForward();
  	if (isPathForward)
	 {
    	moveForward();
 	 }
	 else
	 {
   	 turnLeft();
 	 }
	}
	
19.	
	while (notFinished)
	 {
  	if (PathForward)
	 {
    	moveForward();
  	} 
	else
	{
    	turnRight();
  	}
	}

20.	while (notFinished)
	 {
  	if (isPathForward) 
	{
   	 moveForward();
  	}
	 else
	 {
   	 if (isPathRight)
	 {
   	 turnRight();
    	}
	 else
	 {
   	turnLeft();
	 }
	}
	}